{
  "fullscreen": false,
  "relativeLayout": false,
  "children": [
    {"name": "gameScreen", "type": "container" , "children": [
      {"name": "reelHolder", "type": "container", "y":540, "children": [
        {"name": "reel0", "type": "container", "children": []},
        {"name": "reel1", "type": "container", "x":276, "children": []},
        {"name": "reel2", "type": "container", "x":552, "children": []},
        {"name": "reel3", "type": "container", "x": 828, "children": []},
        {"name": "reel4", "type": "container", "x": 1104, "children": []}
      ]},
      {"name": "bg", "type": "sprite", "image": "bg.png", "alpha": 0.05, "x": "centre", "y": "centre", "anchor": 0.5},
      {"name": "fg", "type": "sprite", "image": "fg.png", "alpha": 0.5, "x": "centre", "y": "centre", "anchor": 0.5},
      {"name": "maskImg", "type": "graphic", "subType": "rectangle", "size": {"x": 0, "y": 0, "width": 1380, "height": 816}, "fill": "0xFF00FF", "x": 0, "y": 545},
      {"name": "btnGo", "type": "graphic", "subType": "rectangle", "size": {"x": 0, "y": 0, "width": 200, "height": 200}, "fill": "0xFF00FF", "x": -262, "y": 150},
      {"name": "btnSpeed", "type": "graphic", "subType": "rectangle", "size": {"x": 0, "y": 0, "width": 200, "height": 200}, "fill": "0x00FF00", "x": -262, "y": 400},
      {"name": "btnMask", "type": "graphic", "subType": "rectangle", "size": {"x": 0, "y": 0, "width": 200, "height": 200}, "fill": "0xFF0000", "x": -262, "y": 650}
    ]}
  ]
}
